ORDC,ORDC-label-E
1,Upper class: culture
2,Upper class: balanced
3,Upper class: economic
4,Upper-middle class: culture
5,Upper-middle class: balanced
6.1,Lower-middle class: economic
6.2,Upper-middle class: economic
7,Lower-middle class: culture
8,Lower-middle class: balanced
10,Skilled working class
11,Unskilled working class
12,Primary-sector employees
996,Not classified
